%YAML 1.1
%TAG !u! tag:unity3d.com,2011:
--- !u!1 &4609077583314325830
GameObject:
  m_ObjectHideFlags: 0
  m_CorrespondingSourceObject: {fileID: 0}
  m_PrefabInstance: {fileID: 0}
  m_PrefabAsset: {fileID: 0}
  serializedVersion: 6
  m_Component:
  - component: {fileID: 4609077583314325829}
  - component: {fileID: 4609077583314325828}
  m_Layer: 0
  m_Name: RotatingPrism
  m_TagString: Untagged
  m_Icon: {fileID: 0}
  m_NavMeshLayer: 0
  m_StaticEditorFlags: 0
  m_IsActive: 1
--- !u!4 &4609077583314325829
Transform:
  m_ObjectHideFlags: 0
  m_CorrespondingSourceObject: {fileID: 0}
  m_PrefabInstance: {fileID: 0}
  m_PrefabAsset: {fileID: 0}
  m_GameObject: {fileID: 4609077583314325830}
  m_LocalRotation: {x: -0.7071068, y: 0, z: -0, w: 0.7071068}
  m_LocalPosition: {x: 0, y: 0, z: 0}
  m_LocalScale: {x: 0.38500825, y: 0.38500825, z: 0.11550252}
  m_Children:
  - {fileID: 4609077583337193656}
  m_Father: {fileID: 0}
  m_RootOrder: 0
  m_LocalEulerAnglesHint: {x: 0, y: 0, z: 0}
--- !u!114 &4609077583314325828
MonoBehaviour:
  m_ObjectHideFlags: 0
  m_CorrespondingSourceObject: {fileID: 0}
  m_PrefabInstance: {fileID: 0}
  m_PrefabAsset: {fileID: 0}
  m_GameObject: {fileID: 4609077583314325830}
  m_Enabled: 1
  m_EditorHideFlags: 0
  m_Script: {fileID: 11500000, guid: dc457f8338c183544ae9f71cedd6d2ba, type: 3}
  m_Name: 
  m_EditorClassIdentifier: 
  speed: 0.25
  waypoint1: {fileID: 0}
  waypoint2: {fileID: 0}
--- !u!1 &4609077583337193661
GameObject:
  m_ObjectHideFlags: 0
  m_CorrespondingSourceObject: {fileID: 0}
  m_PrefabInstance: {fileID: 0}
  m_PrefabAsset: {fileID: 0}
  serializedVersion: 6
  m_Component:
  - component: {fileID: 4609077583337193656}
  - component: {fileID: 4609077583337193657}
  - component: {fileID: 4609077583337193658}
  - component: {fileID: 4609077583337193659}
  - component: {fileID: 4609077583337193660}
  - component: {fileID: 4609077583337193639}
  m_Layer: 0
  m_Name: PrismBody
  m_TagString: Untagged
  m_Icon: {fileID: 0}
  m_NavMeshLayer: 0
  m_StaticEditorFlags: 0
  m_IsActive: 1
--- !u!4 &4609077583337193656
Transform:
  m_ObjectHideFlags: 0
  m_CorrespondingSourceObject: {fileID: 0}
  m_PrefabInstance: {fileID: 0}
  m_PrefabAsset: {fileID: 0}
  m_GameObject: {fileID: 4609077583337193661}
  m_LocalRotation: {x: -0, y: -0, z: -0, w: 1}
  m_LocalPosition: {x: 0, y: -0.12500003, z: 0.775}
  m_LocalScale: {x: 1, y: 1, z: 1}
  m_Children: []
  m_Father: {fileID: 4609077583314325829}
  m_RootOrder: 0
  m_LocalEulerAnglesHint: {x: -90, y: 0, z: 0}
--- !u!33 &4609077583337193657
MeshFilter:
  m_ObjectHideFlags: 0
  m_CorrespondingSourceObject: {fileID: 0}
  m_PrefabInstance: {fileID: 0}
  m_PrefabAsset: {fileID: 0}
  m_GameObject: {fileID: 4609077583337193661}
  m_Mesh: {fileID: 0}
--- !u!23 &4609077583337193658
MeshRenderer:
  m_ObjectHideFlags: 0
  m_CorrespondingSourceObject: {fileID: 0}
  m_PrefabInstance: {fileID: 0}
  m_PrefabAsset: {fileID: 0}
  m_GameObject: {fileID: 4609077583337193661}
  m_Enabled: 1
  m_CastShadows: 1
  m_ReceiveShadows: 1
  m_DynamicOccludee: 1
  m_MotionVectors: 1
  m_LightProbeUsage: 1
  m_ReflectionProbeUsage: 1
  m_RenderingLayerMask: 1
  m_RendererPriority: 0
  m_Materials:
  - {fileID: 2100000, guid: c22777d6e868e4f2fb421913386b154e, type: 2}
  m_StaticBatchInfo:
    firstSubMesh: 0
    subMeshCount: 0
  m_StaticBatchRoot: {fileID: 0}
  m_ProbeAnchor: {fileID: 0}
  m_LightProbeVolumeOverride: {fileID: 0}
  m_ScaleInLightmap: 1
  m_ReceiveGI: 1
  m_PreserveUVs: 0
  m_IgnoreNormalsForChartDetection: 0
  m_ImportantGI: 0
  m_StitchLightmapSeams: 1
  m_SelectedEditorRenderState: 3
  m_MinimumChartSize: 4
  m_AutoUVMaxDistance: 0.5
  m_AutoUVMaxAngle: 89
  m_LightmapParameters: {fileID: 0}
  m_SortingLayerID: 0
  m_SortingLayer: 0
  m_SortingOrder: 0
--- !u!114 &4609077583337193659
MonoBehaviour:
  m_ObjectHideFlags: 0
  m_CorrespondingSourceObject: {fileID: 0}
  m_PrefabInstance: {fileID: 0}
  m_PrefabAsset: {fileID: 0}
  m_GameObject: {fileID: 4609077583337193661}
  m_Enabled: 1
  m_EditorHideFlags: 0
  m_Script: {fileID: 11500000, guid: 8233d90336aea43098adf6dbabd606a2, type: 3}
  m_Name: 
  m_EditorClassIdentifier: 
  m_MeshFormatVersion: 1
  m_Faces:
  - m_Indexes: 010000000200000000000000000000000200000003000000
    m_SmoothingGroup: 0
    m_Uv:
      m_UseWorldSpace: 0
      m_FlipU: 0
      m_FlipV: 0
      m_SwapUV: 0
      m_Fill: 1
      m_Scale: {x: 1, y: 1}
      m_Offset: {x: 0, y: 0}
      m_Rotation: 0
      m_Anchor: 9
    m_Material: {fileID: 2100000, guid: c22777d6e868e4f2fb421913386b154e, type: 2}
    m_SubmeshIndex: 0
    m_ManualUV: 0
    elementGroup: 0
    m_TextureGroup: 1
  - m_Indexes: 040000000500000006000000070000000400000006000000
    m_SmoothingGroup: 0
    m_Uv:
      m_UseWorldSpace: 0
      m_FlipU: 0
      m_FlipV: 0
      m_SwapUV: 0
      m_Fill: 1
      m_Scale: {x: 1, y: 1}
      m_Offset: {x: 0, y: 0}
      m_Rotation: 0
      m_Anchor: 9
    m_Material: {fileID: 2100000, guid: c22777d6e868e4f2fb421913386b154e, type: 2}
    m_SubmeshIndex: 0
    m_ManualUV: 0
    elementGroup: 0
    m_TextureGroup: 1
  - m_Indexes: 0a0000000b00000008000000090000000a00000008000000
    m_SmoothingGroup: 0
    m_Uv:
      m_UseWorldSpace: 0
      m_FlipU: 0
      m_FlipV: 0
      m_SwapUV: 0
      m_Fill: 1
      m_Scale: {x: 1, y: 1}
      m_Offset: {x: 0, y: 0}
      m_Rotation: 0
      m_Anchor: 9
    m_Material: {fileID: 2100000, guid: c22777d6e868e4f2fb421913386b154e, type: 2}
    m_SubmeshIndex: 0
    m_ManualUV: 0
    elementGroup: 0
    m_TextureGroup: 1
  - m_Indexes: 0c0000000d0000000e0000000f0000000c0000000e000000
    m_SmoothingGroup: 0
    m_Uv:
      m_UseWorldSpace: 0
      m_FlipU: 0
      m_FlipV: 0
      m_SwapUV: 0
      m_Fill: 1
      m_Scale: {x: 1, y: 1}
      m_Offset: {x: 0, y: 0}
      m_Rotation: 0
      m_Anchor: 9
    m_Material: {fileID: 2100000, guid: c22777d6e868e4f2fb421913386b154e, type: 2}
    m_SubmeshIndex: 0
    m_ManualUV: 0
    elementGroup: 0
    m_TextureGroup: 2
  - m_Indexes: 100000001100000012000000130000001000000012000000
    m_SmoothingGroup: 0
    m_Uv:
      m_UseWorldSpace: 0
      m_FlipU: 0
      m_FlipV: 0
      m_SwapUV: 0
      m_Fill: 1
      m_Scale: {x: 1, y: 1}
      m_Offset: {x: 0, y: 0}
      m_Rotation: 0
      m_Anchor: 9
    m_Material: {fileID: 2100000, guid: c22777d6e868e4f2fb421913386b154e, type: 2}
    m_SubmeshIndex: 0
    m_ManualUV: 0
    elementGroup: 0
    m_TextureGroup: 2
  - m_Indexes: 170000001400000015000000160000001700000015000000
    m_SmoothingGroup: 0
    m_Uv:
      m_UseWorldSpace: 0
      m_FlipU: 0
      m_FlipV: 0
      m_SwapUV: 0
      m_Fill: 1
      m_Scale: {x: 1, y: 1}
      m_Offset: {x: 0, y: 0}
      m_Rotation: 0
      m_Anchor: 9
    m_Material: {fileID: 2100000, guid: c22777d6e868e4f2fb421913386b154e, type: 2}
    m_SubmeshIndex: 0
    m_ManualUV: 0
    elementGroup: 0
    m_TextureGroup: 2
  - m_Indexes: 1a0000001b00000018000000190000001a00000018000000
    m_SmoothingGroup: 0
    m_Uv:
      m_UseWorldSpace: 0
      m_FlipU: 0
      m_FlipV: 0
      m_SwapUV: 0
      m_Fill: 1
      m_Scale: {x: 1, y: 1}
      m_Offset: {x: 0, y: 0}
      m_Rotation: 0
      m_Anchor: 9
    m_Material: {fileID: 2100000, guid: c22777d6e868e4f2fb421913386b154e, type: 2}
    m_SubmeshIndex: 0
    m_ManualUV: 0
    elementGroup: 0
    m_TextureGroup: 2
  - m_Indexes: 1d0000001e0000001c0000001c0000001e0000001f000000
    m_SmoothingGroup: 0
    m_Uv:
      m_UseWorldSpace: 0
      m_FlipU: 0
      m_FlipV: 0
      m_SwapUV: 0
      m_Fill: 1
      m_Scale: {x: 1, y: 1}
      m_Offset: {x: 0, y: 0}
      m_Rotation: 0
      m_Anchor: 9
    m_Material: {fileID: 2100000, guid: c22777d6e868e4f2fb421913386b154e, type: 2}
    m_SubmeshIndex: 0
    m_ManualUV: 0
    elementGroup: 0
    m_TextureGroup: 3
  - m_Indexes: 220000002000000021000000220000002300000020000000
    m_SmoothingGroup: 0
    m_Uv:
      m_UseWorldSpace: 0
      m_FlipU: 0
      m_FlipV: 0
      m_SwapUV: 0
      m_Fill: 1
      m_Scale: {x: 1, y: 1}
      m_Offset: {x: 0, y: 0}
      m_Rotation: 0
      m_Anchor: 9
    m_Material: {fileID: 2100000, guid: c22777d6e868e4f2fb421913386b154e, type: 2}
    m_SubmeshIndex: 0
    m_ManualUV: 0
    elementGroup: 0
    m_TextureGroup: 3
  - m_Indexes: 240000002600000027000000240000002500000026000000
    m_SmoothingGroup: 0
    m_Uv:
      m_UseWorldSpace: 0
      m_FlipU: 0
      m_FlipV: 0
      m_SwapUV: 0
      m_Fill: 1
      m_Scale: {x: 1, y: 1}
      m_Offset: {x: 0, y: 0}
      m_Rotation: 0
      m_Anchor: 9
    m_Material: {fileID: 2100000, guid: c22777d6e868e4f2fb421913386b154e, type: 2}
    m_SubmeshIndex: 0
    m_ManualUV: 0
    elementGroup: 0
    m_TextureGroup: 3
  - m_Indexes: 2b000000290000002a0000002b0000002800000029000000
    m_SmoothingGroup: 0
    m_Uv:
      m_UseWorldSpace: 0
      m_FlipU: 0
      m_FlipV: 0
      m_SwapUV: 0
      m_Fill: 1
      m_Scale: {x: 1, y: 1}
      m_Offset: {x: 0, y: 0}
      m_Rotation: 0
      m_Anchor: 9
    m_Material: {fileID: 2100000, guid: c22777d6e868e4f2fb421913386b154e, type: 2}
    m_SubmeshIndex: 0
    m_ManualUV: 0
    elementGroup: 0
    m_TextureGroup: 4
  - m_Indexes: 2f0000002d0000002e0000002f0000002c0000002d000000
    m_SmoothingGroup: 0
    m_Uv:
      m_UseWorldSpace: 0
      m_FlipU: 0
      m_FlipV: 0
      m_SwapUV: 0
      m_Fill: 1
      m_Scale: {x: 1, y: 1}
      m_Offset: {x: 0, y: 0}
      m_Rotation: 0
      m_Anchor: 9
    m_Material: {fileID: 2100000, guid: c22777d6e868e4f2fb421913386b154e, type: 2}
    m_SubmeshIndex: 0
    m_ManualUV: 0
    elementGroup: 0
    m_TextureGroup: 4
  - m_Indexes: 320000003000000031000000320000003300000030000000
    m_SmoothingGroup: 0
    m_Uv:
      m_UseWorldSpace: 0
      m_FlipU: 0
      m_FlipV: 0
      m_SwapUV: 0
      m_Fill: 1
      m_Scale: {x: 1, y: 1}
      m_Offset: {x: 0, y: 0}
      m_Rotation: 0
      m_Anchor: 9
    m_Material: {fileID: 2100000, guid: c22777d6e868e4f2fb421913386b154e, type: 2}
    m_SubmeshIndex: 0
    m_ManualUV: 0
    elementGroup: 0
    m_TextureGroup: 4
  - m_Indexes: 350000003700000034000000350000003600000037000000
    m_SmoothingGroup: 0
    m_Uv:
      m_UseWorldSpace: 0
      m_FlipU: 0
      m_FlipV: 0
      m_SwapUV: 0
      m_Fill: 1
      m_Scale: {x: 1, y: 1}
      m_Offset: {x: 0, y: 0}
      m_Rotation: 0
      m_Anchor: 9
    m_Material: {fileID: 2100000, guid: c22777d6e868e4f2fb421913386b154e, type: 2}
    m_SubmeshIndex: 0
    m_ManualUV: 0
    elementGroup: 0
    m_TextureGroup: 4
  - m_Indexes: 3b000000390000003a0000003b0000003800000039000000
    m_SmoothingGroup: 0
    m_Uv:
      m_UseWorldSpace: 0
      m_FlipU: 0
      m_FlipV: 0
      m_SwapUV: 0
      m_Fill: 1
      m_Scale: {x: 1, y: 1}
      m_Offset: {x: 0, y: 0}
      m_Rotation: 0
      m_Anchor: 9
    m_Material: {fileID: 2100000, guid: c22777d6e868e4f2fb421913386b154e, type: 2}
    m_SubmeshIndex: 0
    m_ManualUV: 0
    elementGroup: 0
    m_TextureGroup: 5
  - m_Indexes: 3f0000003d0000003e0000003f0000003c0000003d000000
    m_SmoothingGroup: 0
    m_Uv:
      m_UseWorldSpace: 0
      m_FlipU: 0
      m_FlipV: 0
      m_SwapUV: 0
      m_Fill: 1
      m_Scale: {x: 1, y: 1}
      m_Offset: {x: 0, y: 0}
      m_Rotation: 0
      m_Anchor: 9
    m_Material: {fileID: 2100000, guid: c22777d6e868e4f2fb421913386b154e, type: 2}
    m_SubmeshIndex: 0
    m_ManualUV: 0
    elementGroup: 0
    m_TextureGroup: 5
  - m_Indexes: 420000004000000041000000420000004300000040000000
    m_SmoothingGroup: 0
    m_Uv:
      m_UseWorldSpace: 0
      m_FlipU: 0
      m_FlipV: 0
      m_SwapUV: 0
      m_Fill: 1
      m_Scale: {x: 1, y: 1}
      m_Offset: {x: 0, y: 0}
      m_Rotation: 0
      m_Anchor: 9
    m_Material: {fileID: 2100000, guid: c22777d6e868e4f2fb421913386b154e, type: 2}
    m_SubmeshIndex: 0
    m_ManualUV: 0
    elementGroup: 0
    m_TextureGroup: 5
  - m_Indexes: 450000004700000044000000450000004600000047000000
    m_SmoothingGroup: 0
    m_Uv:
      m_UseWorldSpace: 0
      m_FlipU: 0
      m_FlipV: 0
      m_SwapUV: 0
      m_Fill: 1
      m_Scale: {x: 1, y: 1}
      m_Offset: {x: 0, y: 0}
      m_Rotation: 0
      m_Anchor: 9
    m_Material: {fileID: 2100000, guid: c22777d6e868e4f2fb421913386b154e, type: 2}
    m_SubmeshIndex: 0
    m_ManualUV: 0
    elementGroup: 0
    m_TextureGroup: 5
  m_SharedVertices:
  - m_Vertices: 000000001500000035000000
  - m_Vertices: 01000000040000001200000014000000
  - m_Vertices: 02000000070000000b000000
  - m_Vertices: 030000000a0000002b00000036000000
  - m_Vertices: 05000000110000003d000000
  - m_Vertices: 0600000008000000390000003c000000
  - m_Vertices: 090000002800000038000000
  - m_Vertices: 0c0000002500000041000000
  - m_Vertices: 0d000000100000003e00000040000000
  - m_Vertices: 0e00000013000000170000001b000000
  - m_Vertices: 0f0000001a0000001f00000026000000
  - m_Vertices: 16000000180000003200000034000000
  - m_Vertices: 190000001c00000031000000
  - m_Vertices: 1d000000200000002e00000030000000
  - m_Vertices: 1e0000002300000027000000
  - m_Vertices: 210000002d00000045000000
  - m_Vertices: 22000000240000004200000044000000
  - m_Vertices: 290000002c0000003b00000046000000
  - m_Vertices: 2a0000002f0000003300000037000000
  - m_Vertices: 3a0000003f0000004300000047000000
  m_SharedTextures: []
  m_Positions:
  - {x: 0, y: 0.5, z: -0.75000006}
  - {x: 0.25, y: 0.12500003, z: -0.75000006}
  - {x: 0, y: 0.000000029802322, z: -0.75000006}
  - {x: -0.25, y: 0.12500003, z: -0.75000006}
  - {x: 0.25, y: 0.12500003, z: -0.75000006}
  - {x: 0.5, y: -0.24999997, z: -0.75000006}
  - {x: 0, y: -0.24999997, z: -0.75000006}
  - {x: 0, y: 0.000000029802322, z: -0.75000006}
  - {x: 0, y: -0.24999997, z: -0.75000006}
  - {x: -0.5, y: -0.24999997, z: -0.75000006}
  - {x: -0.25, y: 0.12500003, z: -0.75000006}
  - {x: 0, y: 0.000000029802322, z: -0.75000006}
  - {x: 0.5, y: -0.24999997, z: -0.000000059604645}
  - {x: 0.5, y: -0.24999997, z: -0.37500006}
  - {x: 0.25, y: 0.12500003, z: -0.37500006}
  - {x: 0.25, y: 0.12500003, z: -0.000000059604645}
  - {x: 0.5, y: -0.24999997, z: -0.37500006}
  - {x: 0.5, y: -0.24999997, z: -0.75000006}
  - {x: 0.25, y: 0.12500003, z: -0.75000006}
  - {x: 0.25, y: 0.12500003, z: -0.37500006}
  - {x: 0.25, y: 0.12500003, z: -0.75000006}
  - {x: 0, y: 0.5, z: -0.75000006}
  - {x: 0, y: 0.5, z: -0.37500006}
  - {x: 0.25, y: 0.12500003, z: -0.37500006}
  - {x: 0, y: 0.5, z: -0.37500006}
  - {x: 0, y: 0.5, z: -0.000000059604645}
  - {x: 0.25, y: 0.12500003, z: -0.000000059604645}
  - {x: 0.25, y: 0.12500003, z: -0.37500006}
  - {x: 0, y: 0.5, z: -0.000000059604645}
  - {x: -0.25, y: 0.12500003, z: -0.000000059604645}
  - {x: 0, y: 0.000000029802322, z: -0.000000059604645}
  - {x: 0.25, y: 0.12500003, z: -0.000000059604645}
  - {x: -0.25, y: 0.12500003, z: -0.000000059604645}
  - {x: -0.5, y: -0.24999997, z: -0.000000059604645}
  - {x: 0, y: -0.24999997, z: -0.000000059604645}
  - {x: 0, y: 0.000000029802322, z: -0.000000059604645}
  - {x: 0, y: -0.24999997, z: -0.000000059604645}
  - {x: 0.5, y: -0.24999997, z: -0.000000059604645}
  - {x: 0.25, y: 0.12500003, z: -0.000000059604645}
  - {x: 0, y: 0.000000029802322, z: -0.000000059604645}
  - {x: -0.5, y: -0.24999997, z: -0.75000006}
  - {x: -0.5, y: -0.24999997, z: -0.37500006}
  - {x: -0.25, y: 0.12500003, z: -0.37500006}
  - {x: -0.25, y: 0.12500003, z: -0.75000006}
  - {x: -0.5, y: -0.24999997, z: -0.37500006}
  - {x: -0.5, y: -0.24999997, z: -0.000000059604645}
  - {x: -0.25, y: 0.12500003, z: -0.000000059604645}
  - {x: -0.25, y: 0.12500003, z: -0.37500006}
  - {x: -0.25, y: 0.12500003, z: -0.000000059604645}
  - {x: 0, y: 0.5, z: -0.000000059604645}
  - {x: 0, y: 0.5, z: -0.37500006}
  - {x: -0.25, y: 0.12500003, z: -0.37500006}
  - {x: 0, y: 0.5, z: -0.37500006}
  - {x: 0, y: 0.5, z: -0.75000006}
  - {x: -0.25, y: 0.12500003, z: -0.75000006}
  - {x: -0.25, y: 0.12500003, z: -0.37500006}
  - {x: -0.5, y: -0.24999997, z: -0.75000006}
  - {x: 0, y: -0.24999997, z: -0.75000006}
  - {x: 0, y: -0.24999997, z: -0.37500006}
  - {x: -0.5, y: -0.24999997, z: -0.37500006}
  - {x: 0, y: -0.24999997, z: -0.75000006}
  - {x: 0.5, y: -0.24999997, z: -0.75000006}
  - {x: 0.5, y: -0.24999997, z: -0.37500006}
  - {x: 0, y: -0.24999997, z: -0.37500006}
  - {x: 0.5, y: -0.24999997, z: -0.37500006}
  - {x: 0.5, y: -0.24999997, z: -0.000000059604645}
  - {x: 0, y: -0.24999997, z: -0.000000059604645}
  - {x: 0, y: -0.24999997, z: -0.37500006}
  - {x: 0, y: -0.24999997, z: -0.000000059604645}
  - {x: -0.5, y: -0.24999997, z: -0.000000059604645}
  - {x: -0.5, y: -0.24999997, z: -0.37500006}
  - {x: 0, y: -0.24999997, z: -0.37500006}
  m_Textures0:
  - {x: 0, y: 0.5}
  - {x: 0.25, y: 0.12500003}
  - {x: 0, y: 0.000000029802322}
  - {x: -0.25, y: 0.12500003}
  - {x: 0.25, y: 0.12500003}
  - {x: 0.5, y: -0.24999997}
  - {x: 0, y: -0.24999997}
  - {x: 0, y: 0.000000029802322}
  - {x: 0, y: -0.24999997}
  - {x: -0.5, y: -0.24999997}
  - {x: -0.25, y: 0.12500003}
  - {x: 0, y: 0.000000029802322}
  - {x: -0.000000059604645, y: -0.48536268}
  - {x: -0.37500006, y: -0.48536268}
  - {x: -0.37500006, y: -0.034668755}
  - {x: -0.000000059604645, y: -0.034668755}
  - {x: -0.37500006, y: -0.48536268}
  - {x: -0.75000006, y: -0.48536268}
  - {x: -0.75000006, y: -0.034668755}
  - {x: -0.37500006, y: -0.034668755}
  - {x: -0.75000006, y: -0.034668755}
  - {x: -0.75000006, y: 0.41602513}
  - {x: -0.37500006, y: 0.41602513}
  - {x: -0.37500006, y: -0.034668755}
  - {x: -0.37500006, y: 0.41602513}
  - {x: -0.000000059604645, y: 0.41602513}
  - {x: -0.000000059604645, y: -0.034668755}
  - {x: -0.37500006, y: -0.034668755}
  - {x: 0, y: 0.5}
  - {x: 0.25, y: 0.12500003}
  - {x: 0, y: 0.000000029802322}
  - {x: -0.25, y: 0.12500003}
  - {x: 0.25, y: 0.12500003}
  - {x: 0.5, y: -0.24999997}
  - {x: -0, y: -0.24999997}
  - {x: 0, y: 0.000000029802322}
  - {x: -0, y: -0.24999997}
  - {x: -0.5, y: -0.24999997}
  - {x: -0.25, y: 0.12500003}
  - {x: 0, y: 0.000000029802322}
  - {x: 0.75000006, y: -0.48536268}
  - {x: 0.37500006, y: -0.48536268}
  - {x: 0.37500006, y: -0.034668755}
  - {x: 0.75000006, y: -0.034668755}
  - {x: 0.37500006, y: -0.48536268}
  - {x: 0.000000059604645, y: -0.48536268}
  - {x: 0.000000059604645, y: -0.034668755}
  - {x: 0.37500006, y: -0.034668755}
  - {x: 0.000000059604645, y: -0.034668755}
  - {x: 0.000000059604645, y: 0.41602513}
  - {x: 0.37500006, y: 0.41602513}
  - {x: 0.37500006, y: -0.034668755}
  - {x: 0.37500006, y: 0.41602513}
  - {x: 0.75000006, y: 0.41602513}
  - {x: 0.75000006, y: -0.034668755}
  - {x: 0.37500006, y: -0.034668755}
  - {x: 0.5, y: -0.75000006}
  - {x: -0, y: -0.75000006}
  - {x: -0, y: -0.37500006}
  - {x: 0.5, y: -0.37500006}
  - {x: -0, y: -0.75000006}
  - {x: -0.5, y: -0.75000006}
  - {x: -0.5, y: -0.37500006}
  - {x: -0, y: -0.37500006}
  - {x: -0.5, y: -0.37500006}
  - {x: -0.5, y: -0.000000059604645}
  - {x: -0, y: -0.000000059604645}
  - {x: -0, y: -0.37500006}
  - {x: -0, y: -0.000000059604645}
  - {x: 0.5, y: -0.000000059604645}
  - {x: 0.5, y: -0.37500006}
  - {x: -0, y: -0.37500006}
  m_Textures2: []
  m_Textures3: []
  m_Tangents:
  - {x: 1, y: 0, z: 0, w: -1}
  - {x: 1, y: 0, z: 0, w: -1}
  - {x: 1, y: 0, z: 0, w: -1}
  - {x: 1, y: 0, z: 0, w: -1}
  - {x: 1, y: 0, z: 0, w: -1}
  - {x: 1, y: 0, z: 0, w: -1}
  - {x: 1, y: 0, z: 0, w: -1}
  - {x: 1, y: 0, z: 0, w: -1}
  - {x: 1, y: 0, z: 0, w: -1}
  - {x: 1, y: 0, z: 0, w: -1}
  - {x: 1, y: 0, z: 0, w: -1}
  - {x: 1, y: 0, z: 0, w: -1}
  - {x: 0, y: 0, z: 1, w: -1}
  - {x: 0, y: 0, z: 1, w: -1}
  - {x: 0, y: 0, z: 1, w: -1}
  - {x: 0, y: 0, z: 1, w: -1}
  - {x: 0, y: 0, z: 1, w: -1}
  - {x: 0, y: 0, z: 1, w: -1}
  - {x: 0, y: 0, z: 1, w: -1}
  - {x: 0, y: 0, z: 1, w: -1}
  - {x: 0, y: 0, z: 1, w: -1}
  - {x: 0, y: 0, z: 1, w: -1}
  - {x: 0, y: 0, z: 1, w: -1}
  - {x: 0, y: 0, z: 1, w: -1}
  - {x: 0, y: 0, z: 1, w: -1}
  - {x: 0, y: 0, z: 1, w: -1}
  - {x: 0, y: 0, z: 1, w: -1}
  - {x: 0, y: 0, z: 1, w: -1}
  - {x: -1, y: 0, z: 0, w: -1}
  - {x: -1, y: 0, z: 0, w: -1}
  - {x: -1, y: 0, z: 0, w: -1}
  - {x: -1, y: 0, z: 0, w: -1}
  - {x: -1, y: 0, z: 0, w: -1}
  - {x: -1, y: 0, z: 0, w: -1}
  - {x: -1, y: 0, z: 0, w: -1}
  - {x: -1, y: 0, z: 0, w: -1}
  - {x: -1, y: 0, z: 0, w: -1}
  - {x: -1, y: 0, z: 0, w: -1}
  - {x: -1, y: 0, z: 0, w: -1}
  - {x: -1, y: 0, z: 0, w: -1}
  - {x: 0, y: 0, z: -1, w: -1}
  - {x: 0, y: 0, z: -1, w: -1}
  - {x: 0, y: 0, z: -1, w: -1}
  - {x: 0, y: 0, z: -1, w: -1}
  - {x: 0, y: 0, z: -1, w: -1}
  - {x: 0, y: 0, z: -1, w: -1}
  - {x: 0, y: 0, z: -1, w: -1}
  - {x: 0, y: 0, z: -1, w: -1}
  - {x: 0, y: 0, z: -1, w: -1}
  - {x: 0, y: 0, z: -1, w: -1}
  - {x: 0, y: 0, z: -1, w: -1}
  - {x: 0, y: 0, z: -1, w: -1}
  - {x: 0, y: 0, z: -1, w: -1}
  - {x: 0, y: 0, z: -1, w: -1}
  - {x: 0, y: 0, z: -1, w: -1}
  - {x: 0, y: 0, z: -1, w: -1}
  - {x: -1, y: 0, z: 0, w: -1}
  - {x: -1, y: 0, z: 0, w: -1}
  - {x: -1, y: 0, z: 0, w: -1}
  - {x: -1, y: 0, z: 0, w: -1}
  - {x: -1, y: 0, z: 0, w: -1}
  - {x: -1, y: 0, z: 0, w: -1}
  - {x: -1, y: 0, z: 0, w: -1}
  - {x: -1, y: 0, z: 0, w: -1}
  - {x: -1, y: 0, z: 0, w: -1}
  - {x: -1, y: 0, z: 0, w: -1}
  - {x: -1, y: 0, z: 0, w: -1}
  - {x: -1, y: 0, z: 0, w: -1}
  - {x: -1, y: 0, z: 0, w: -1}
  - {x: -1, y: 0, z: 0, w: -1}
  - {x: -1, y: 0, z: 0, w: -1}
  - {x: -1, y: 0, z: 0, w: -1}
  m_Colors: []
  m_UnwrapParameters:
    m_HardAngle: 88
    m_PackMargin: 20
    m_AngleError: 8
    m_AreaError: 15
  m_PreserveMeshAssetOnDestroy: 0
  assetGuid: 
  m_IsSelectable: 1
  m_SelectedFaces: 
  m_SelectedEdges: []
  m_SelectedVertices: 
--- !u!64 &4609077583337193660
MeshCollider:
  m_ObjectHideFlags: 0
  m_CorrespondingSourceObject: {fileID: 0}
  m_PrefabInstance: {fileID: 0}
  m_PrefabAsset: {fileID: 0}
  m_GameObject: {fileID: 4609077583337193661}
  m_Material: {fileID: 0}
  m_IsTrigger: 0
  m_Enabled: 1
  serializedVersion: 3
  m_Convex: 0
  m_CookingOptions: 14
  m_Mesh: {fileID: 0}
--- !u!114 &4609077583337193639
MonoBehaviour:
  m_ObjectHideFlags: 0
  m_CorrespondingSourceObject: {fileID: 0}
  m_PrefabInstance: {fileID: 0}
  m_PrefabAsset: {fileID: 0}
  m_GameObject: {fileID: 4609077583337193661}
  m_Enabled: 1
  m_EditorHideFlags: 0
  m_Script: {fileID: 11500000, guid: 82fb9a17af1ec8f48a83d91f22a1e480, type: 3}
  m_Name: 
  m_EditorClassIdentifier: 
  speed: 10
